[
  {
    "name": "haskell-cloud-app",
    "image": "${repository_url}:latest",
    "cpu": 10,
    "memory": 1024,
    "essential": true,
    "portMappings": [
      {
        "containerPort": 8000,
        "hostPort": 8000
      }
    ]
  }
]
